{
	"compiler": {
		"version": "0.8.7+commit.e28d00a7"
	},
	"language": "Solidity",
	"output": {
		"abi": [
			{
				"inputs": [
					{
						"internalType": "string",
						"name": "_passphrase",
						"type": "string"
					}
				],
				"stateMutability": "nonpayable",
				"type": "constructor"
			},
			{
				"inputs": [
					{
						"internalType": "string",
						"name": "_passphrase",
						"type": "string"
					}
				],
				"name": "getInfo",
				"outputs": [
					{
						"internalType": "uint256",
						"name": "",
						"type": "uint256"
					}
				],
				"stateMutability": "view",
				"type": "function"
			}
		],
		"devdoc": {
			"kind": "dev",
			"methods": {},
			"version": 1
		},
		"userdoc": {
			"kind": "user",
			"methods": {},
			"version": 1
		}
	},
	"settings": {
		"compilationTarget": {
			"contracts/locked.sol": "Locked"
		},
		"evmVersion": "london",
		"libraries": {},
		"metadata": {
			"bytecodeHash": "ipfs"
		},
		"optimizer": {
			"enabled": false,
			"runs": 200
		},
		"remappings": []
	},
	"sources": {
		"contracts/locked.sol": {
			"keccak256": "0x4b47e4c42557d4b9f9b87dd42810399796aaa68cc4fc1b60369b8b4fd87b87f5",
			"license": "UNLICENSED",
			"urls": [
				"bzz-raw://7f5f6206d71e8b98e6700691e41aafee8fd87b9b7fd43480620d7286d98478cd",
				"dweb:/ipfs/QmSfm3gNHFwEGy2vxsW8i2YWzTP9MPShCdM5mKwNaZ97jb"
			]
		}
	},
	"version": 1
}